TP-02/Riscv.vcd
$date
	Tue Jun 06 20:49:01 2023
$end
$version
	Icarus Verilog
$end
$timescale
	100ps
$end
$scope module testBench $end
$var wire 1 ! reset $end
$var wire 32 " x9 [31:0] $end
$var wire 32 # x8 [31:0] $end
$var wire 32 $ x7 [31:0] $end
$var wire 32 % x6 [31:0] $end
$var wire 32 & x5 [31:0] $end
$var wire 32 ' x4 [31:0] $end
$var wire 32 ( x31 [31:0] $end
$var wire 32 ) x30 [31:0] $end
$var wire 32 * x3 [31:0] $end
$var wire 32 + x29 [31:0] $end
$var wire 32 , x28 [31:0] $end
$var wire 32 - x27 [31:0] $end
$var wire 32 . x26 [31:0] $end
$var wire 32 / x25 [31:0] $end
$var wire 32 0 x24 [31:0] $end
$var wire 32 1 x23 [31:0] $end
$var wire 32 2 x22 [31:0] $end
$var wire 32 3 x21 [31:0] $end
$var wire 32 4 x20 [31:0] $end
$var wire 32 5 x2 [31:0] $end
$var wire 32 6 x19 [31:0] $end
$var wire 32 7 x18 [31:0] $end
$var wire 32 8 x17 [31:0] $end
$var wire 32 9 x16 [31:0] $end
$var wire 32 : x15 [31:0] $end
$var wire 32 ; x14 [31:0] $end
$var wire 32 < x13 [31:0] $end
$var wire 32 = x12 [31:0] $end
$var wire 32 > x11 [31:0] $end
$var wire 32 ? x10 [31:0] $end
$var wire 32 @ x1 [31:0] $end
$var wire 32 A x0 [31:0] $end
$var wire 1 B clk $end
$var wire 32 C Result [31:0] $end
$var wire 32 D PC_Output [31:0] $end
$var wire 32 E Instruction [31:0] $end
$scope module clock_0 $end
$var reg 1 B clock $end
$upscope $end
$scope module tb $end
$var wire 1 B clk $end
$var wire 1 ! reset $end
$var wire 32 F x9 [31:0] $end
$var wire 32 G x8 [31:0] $end
$var wire 32 H x7 [31:0] $end
$var wire 32 I x6 [31:0] $end
$var wire 32 J x5 [31:0] $end
$var wire 32 K x4 [31:0] $end
$var wire 32 L x31 [31:0] $end
$var wire 32 M x30 [31:0] $end
$var wire 32 N x3 [31:0] $end
$var wire 32 O x29 [31:0] $end
$var wire 32 P x28 [31:0] $end
$var wire 32 Q x27 [31:0] $end
$var wire 32 R x26 [31:0] $end
$var wire 32 S x25 [31:0] $end
$var wire 32 T x24 [31:0] $end
$var wire 32 U x23 [31:0] $end
$var wire 32 V x22 [31:0] $end
$var wire 32 W x21 [31:0] $end
$var wire 32 X x20 [31:0] $end
$var wire 32 Y x2 [31:0] $end
$var wire 32 Z x19 [31:0] $end
$var wire 32 [ x18 [31:0] $end
$var wire 32 \ x17 [31:0] $end
$var wire 32 ] x16 [31:0] $end
$var wire 32 ^ x15 [31:0] $end
$var wire 32 _ x14 [31:0] $end
$var wire 32 ` x13 [31:0] $end
$var wire 32 a x12 [31:0] $end
$var wire 32 b x11 [31:0] $end
$var wire 32 c x10 [31:0] $end
$var wire 32 d x1 [31:0] $end
$var wire 32 e x0 [31:0] $end
$var wire 1 f Zero $end
$var wire 1 g WriteSrc $end
$var wire 5 h WriteReg [4:0] $end
$var wire 32 i WriteData [31:0] $end
$var wire 32 j SaidaMuxALU [31:0] $end
$var wire 32 k Result [31:0] $end
$var wire 1 l RegWrite $end
$var wire 5 m ReadReg2 [4:0] $end
$var wire 5 n ReadReg1 [4:0] $end
$var wire 32 o ReadData2 [31:0] $end
$var wire 32 p ReadData1 [31:0] $end
$var wire 32 q ReadData [31:0] $end
$var wire 32 r PCin [31:0] $end
$var wire 32 s PCSum [31:0] $end
$var wire 32 t PCOut [31:0] $end
$var wire 32 u PCADD4 [31:0] $end
$var wire 4 v Operation [3:0] $end
$var wire 7 w Opcode [6:0] $end
$var wire 1 x MemWrite $end
$var wire 1 y MemRead $end
$var wire 1 z JumpControl $end
$var wire 32 { Instruction [31:0] $end
$var wire 32 | ImmGenOut [31:0] $end
$var wire 7 } Funct7 [6:0] $end
$var wire 3 ~ Funct3 [2:0] $end
$var wire 1 !" BranchZero $end
$var wire 1 "" BranchNotZero $end
$var wire 1 #" ALUSrc $end
$var wire 3 $" ALUOP [2:0] $end
$scope module ALU1 $end
$var wire 32 %" ReadData2 [31:0] $end
$var wire 32 &" ReadData1 [31:0] $end
$var wire 4 '" Operation [3:0] $end
$var reg 32 (" Result [31:0] $end
$var reg 1 f Zero $end
$upscope $end
$scope module ALUControl1 $end
$var wire 7 )" Funct7 [6:0] $end
$var wire 3 *" Funct3 [2:0] $end
$var wire 3 +" ALUOP [2:0] $end
$var reg 4 ," Operation [3:0] $end
$upscope $end
$scope module Control1 $end
$var wire 3 -" funct3 [2:0] $end
$var wire 7 ." Opcode [6:0] $end
$var reg 3 /" ALUOP [2:0] $end
$var reg 1 #" ALUSrc $end
$var reg 1 "" BranchNotZero $end
$var reg 1 !" BranchZero $end
$var reg 1 y MemRead $end
$var reg 1 x MemWrite $end
$var reg 1 l RegWrite $end
$var reg 1 g WriteSrc $end
$upscope $end
$scope module DataMemory1 $end
$var wire 32 0" Address [31:0] $end
$var wire 1 y Read $end
$var wire 1 x Write $end
$var wire 1 B clock $end
$var wire 1 ! reset $end
$var wire 32 1" WriteData [31:0] $end
$var reg 32 2" ReadData [31:0] $end
$upscope $end
$scope module ImmGen1 $end
$var wire 12 3" imm_SB [11:0] $end
$var wire 12 4" imm_S [11:0] $end
$var wire 12 5" imm_I [11:0] $end
$var wire 32 6" Instruction [31:0] $end
$var reg 12 7" ImmGen [11:0] $end
$var reg 32 8" ImmGenOut [31:0] $end
$upscope $end
$scope module InstructionDecoder1 $end
$var wire 32 9" Instruction [31:0] $end
$var reg 5 :" ReadReg1 [4:0] $end
$var reg 5 ;" ReadReg2 [4:0] $end
$var reg 5 <" WriteReg [4:0] $end
$var reg 3 =" funct3 [2:0] $end
$var reg 7 >" funct7 [6:0] $end
$var reg 7 ?" opcode [6:0] $end
$upscope $end
$scope module InstructionMemory1 $end
$var wire 1 B clock $end
$var wire 1 ! reset $end
$var wire 32 @" ReadAddress [31:0] $end
$var reg 32 A" Instruction [31:0] $end
$upscope $end
$scope module JumpControl1 $end
$var wire 1 "" BranchNotZero $end
$var wire 1 !" BranchZero $end
$var wire 1 f Zero $end
$var reg 1 z JumpControl $end
$upscope $end
$scope module MuxALU1 $end
$var wire 1 #" ALUSrc $end
$var wire 32 B" ImmGen [31:0] $end
$var wire 32 C" ReadData2 [31:0] $end
$var reg 32 D" out [31:0] $end
$upscope $end
$scope module MuxDataMemory1 $end
$var wire 32 E" ALUResult [31:0] $end
$var wire 32 F" ReadData [31:0] $end
$var wire 1 g WriteSrc $end
$var reg 32 G" out [31:0] $end
$upscope $end
$scope module MuxJump1 $end
$var wire 1 z JumpControl $end
$var wire 32 H" PCSum [31:0] $end
$var wire 32 I" PCADD4 [31:0] $end
$var reg 32 J" PCOut [31:0] $end
$upscope $end
$scope module PC1 $end
$var wire 32 K" PCin [31:0] $end
$var wire 1 B clock $end
$var wire 1 ! reset $end
$var reg 32 L" PCOut [31:0] $end
$upscope $end
$scope module PCADD41 $end
$var wire 32 M" PCin [31:0] $end
$var reg 32 N" PCADD4 [31:0] $end
$upscope $end
$scope module PCSUM1 $end
$var wire 32 O" ImmGen [31:0] $end
$var wire 1 P" Neg $end
$var wire 32 Q" PCin [31:0] $end
$var reg 32 R" PCSum [31:0] $end
$upscope $end
$scope module RegisterFile1 $end
$var wire 5 S" ReadReg1 [4:0] $end
$var wire 5 T" ReadReg2 [4:0] $end
$var wire 1 l RegWrite $end
$var wire 32 U" WriteData [31:0] $end
$var wire 5 V" WriteReg [4:0] $end
$var wire 1 B clock $end
$var wire 32 W" x0 [31:0] $end
$var wire 32 X" x1 [31:0] $end
$var wire 32 Y" x10 [31:0] $end
$var wire 32 Z" x11 [31:0] $end
$var wire 32 [" x12 [31:0] $end
$var wire 32 \" x13 [31:0] $end
$var wire 32 ]" x14 [31:0] $end
$var wire 32 ^" x15 [31:0] $end
$var wire 32 _" x16 [31:0] $end
$var wire 32 `" x17 [31:0] $end
$var wire 32 a" x18 [31:0] $end
$var wire 32 b" x19 [31:0] $end
$var wire 32 c" x2 [31:0] $end
$var wire 32 d" x20 [31:0] $end
$var wire 32 e" x21 [31:0] $end
$var wire 32 f" x22 [31:0] $end
$var wire 32 g" x23 [31:0] $end
$var wire 32 h" x24 [31:0] $end
$var wire 32 i" x25 [31:0] $end
$var wire 32 j" x26 [31:0] $end
$var wire 32 k" x27 [31:0] $end
$var wire 32 l" x28 [31:0] $end
$var wire 32 m" x29 [31:0] $end
$var wire 32 n" x3 [31:0] $end
$var wire 32 o" x30 [31:0] $end
$var wire 32 p" x31 [31:0] $end
$var wire 32 q" x4 [31:0] $end
$var wire 32 r" x5 [31:0] $end
$var wire 32 s" x6 [31:0] $end
$var wire 32 t" x7 [31:0] $end
$var wire 32 u" x8 [31:0] $end
$var wire 32 v" x9 [31:0] $end
$var reg 32 w" ReadData1 [31:0] $end
$var reg 32 x" ReadData2 [31:0] $end
$upscope $end
$upscope $end
$upscope $end
$enddefinitions $end
$comment Show the parameter values. $end
$dumpall
$end
#0
$dumpvars
b1 x"
b1 w"
b0 v"
b0 u"
b0 t"
b0 s"
b1 r"
b0 q"
b0 p"
b1 o"
b0 n"
b0 m"
b0 l"
b0 k"
b0 j"
b0 i"
b0 h"
b0 g"
b0 f"
b0 e"
b0 d"
b0 c"
b0 b"
b0 a"
b0 `"
b0 _"
b0 ^"
b0 ]"
b0 \"
b0 ["
b0 Z"
b0 Y"
b0 X"
b0 W"
b101 V"
b10 U"
b101 T"
b101 S"
b0 R"
b0 Q"
0P"
b0 O"
b100 N"
b0 M"
b0 L"
b100 K"
b100 J"
b100 I"
b0 H"
b10 G"
b0 F"
b10 E"
b1 D"
b1 C"
b0 B"
b10100101000001010110011 A"
b0 @"
b110011 ?"
b0 >"
b0 ="
b101 <"
b101 ;"
b101 :"
b10100101000001010110011 9"
b0 8"
b0 7"
b10100101000001010110011 6"
b101 5"
b101 4"
b10000000010 3"
b0 2"
b1 1"
b10 0"
b10 /"
b110011 ."
b0 -"
b10 ,"
b10 +"
b0 *"
b0 )"
b10 ("
b10 '"
b1 &"
b1 %"
b10 $"
0#"
0""
0!"
b0 ~
b0 }
b0 |
b10100101000001010110011 {
0z
0y
0x
b110011 w
b10 v
b100 u
b0 t
b0 s
b100 r
b0 q
b1 p
b1 o
b101 n
b101 m
1l
b10 k
b1 j
b10 i
b101 h
0g
0f
b0 e
b0 d
b0 c
b0 b
b0 a
b0 `
b0 _
b0 ^
b0 ]
b0 \
b0 [
b0 Z
b0 Y
b0 X
b0 W
b0 V
b0 U
b0 T
b0 S
b0 R
b0 Q
b0 P
b0 O
b0 N
b1 M
b0 L
b0 K
b1 J
b0 I
b0 H
b0 G
b0 F
b10100101000001010110011 E
b0 D
b10 C
xB
b0 A
b0 @
b0 ?
b0 >
b0 =
b0 <
b0 ;
b0 :
b0 9
b0 8
b0 7
b0 6
b0 5
b0 4
b0 3
b0 2
b0 1
b0 0
b0 /
b0 .
b0 -
b0 ,
b0 +
b0 *
b1 )
b0 (
b0 '
b1 &
b0 %
b0 $
b0 #
b0 "
z!
$end
#100
0B
#200
1f
b0 v
b0 '"
b0 ,"
1#"
1x
b0 $"
b0 +"
b0 /"
0l
b0 i
b0 G"
b0 U"
b0 h
b0 <"
b0 V"
b0 n
b0 :"
b0 S"
b100011 w
b100011 ."
b100011 ?"
b0 C
b0 k
b0 ("
b0 0"
b0 E"
b0 4"
b0 3"
b0 |
b0 8"
b0 B"
b0 O"
b0 7"
b1000 r
b1000 J"
b1000 K"
b0 j
b0 %"
b0 D"
b10100000000000000100011 E
b10100000000000000100011 {
b10100000000000000100011 6"
b10100000000000000100011 9"
b10100000000000000100011 A"
b1000 u
b1000 I"
b1000 N"
b100 s
b100 H"
b100 R"
b10 o
b10 1"
b10 C"
b10 x"
b0 p
b0 &"
b0 w"
b100 D
b100 t
b100 @"
b100 L"
b100 M"
b100 Q"
b10 &
b10 J
b10 r"
1B
#300
0B
#400
b10 i
b10 G"
b10 U"
b10 q
b10 2"
b10 F"
b0 o
b0 1"
b0 C"
b0 x"
1g
0x
1y
1l
b0 C
b0 k
b0 ("
b0 0"
b0 E"
b11 h
b11 <"
b11 V"
b0 m
b0 ;"
b0 T"
b11 w
b11 ."
b11 ?"
b0 j
b0 %"
b0 D"
b11 4"
b10000000001 3"
b0 5"
b0 |
b0 8"
b0 B"
b0 O"
b0 7"
b1100 r
b1100 J"
b1100 K"
b1100 u
b1100 I"
b1100 N"
b110000011 E
b110000011 {
b110000011 6"
b110000011 9"
b110000011 A"
b1000 s
b1000 H"
b1000 R"
b1000 D
b1000 t
b1000 @"
b1000 L"
b1000 M"
b1000 Q"
1B
#500
0B
#600
0f
b0 q
b0 2"
b0 F"
b100 C
b100 k
b100 ("
b100 0"
b100 E"
b1 j
b1 %"
b1 D"
b100 i
b100 G"
b100 U"
b1 o
b1 1"
b1 C"
b1 x"
b10 p
b10 &"
b10 w"
b100 v
b100 '"
b100 ,"
0#"
0g
0y
b10 $"
b10 +"
b10 /"
b101 h
b101 <"
b101 V"
b11110 m
b11110 ;"
b11110 T"
b101 n
b101 :"
b101 S"
b110011 w
b110011 ."
b110011 ?"
b1 ~
b1 *"
b1 -"
b1 ="
b101 4"
b10000000010 3"
b11110 5"
b10000 r
b10000 J"
b10000 K"
b1111000101001001010110011 E
b1111000101001001010110011 {
b1111000101001001010110011 6"
b1111000101001001010110011 9"
b1111000101001001010110011 A"
b10000 u
b10000 I"
b10000 N"
b1100 s
b1100 H"
b1100 R"
b1100 D
b1100 t
b1100 @"
b1100 L"
b1100 M"
b1100 Q"
b10 *
b10 N
b10 n"
1B
#700
0B
#800
b10 j
b10 %"
b10 D"
b10 i
b10 G"
b10 U"
b10 o
b10 1"
b10 C"
b10 x"
b11 v
b11 '"
b11 ,"
b10 C
b10 k
b10 ("
b10 0"
b10 E"
b110 h
b110 <"
b110 V"
b11 m
b11 ;"
b11 T"
b100000 }
b100000 )"
b100000 >"
b0 ~
b0 *"
b0 -"
b0 ="
b10000000110 4"
b1000000011 3"
b10000000011 5"
b10100 r
b10100 J"
b10100 K"
b100 p
b100 &"
b100 w"
b10100 u
b10100 I"
b10100 N"
b1000000001100101000001100110011 E
b1000000001100101000001100110011 {
b1000000001100101000001100110011 6"
b1000000001100101000001100110011 9"
b1000000001100101000001100110011 A"
b10000 s
b10000 H"
b10000 R"
b100 &
b100 J
b100 r"
b10000 D
b10000 t
b10000 @"
b10000 L"
b10000 M"
b10000 Q"
1B
#900
0B
#1000
b11 i
b11 G"
b11 U"
b11 C
b11 k
b11 ("
b11 0"
b11 E"
b1 j
b1 %"
b1 D"
b0 o
b0 1"
b0 C"
b0 x"
b10 p
b10 &"
b10 w"
b101 v
b101 '"
b101 ,"
1#"
b11 $"
b11 +"
b11 /"
b111 h
b111 <"
b111 V"
b1 m
b1 ;"
b1 T"
b11 n
b11 :"
b11 S"
b10011 w
b10011 ."
b10011 ?"
b0 }
b0 )"
b0 >"
b110 ~
b110 *"
b110 -"
b110 ="
b111 4"
b10000000011 3"
b1 5"
b1 |
b1 8"
b1 B"
b1 O"
b1 7"
b11000 r
b11000 J"
b11000 K"
b100011110001110010011 E
b100011110001110010011 {
b100011110001110010011 6"
b100011110001110010011 9"
b100011110001110010011 A"
b11000 u
b11000 I"
b11000 N"
b10101 s
b10101 H"
b10101 R"
b10100 D
b10100 t
b10100 @"
b10100 L"
b10100 M"
b10100 Q"
b10 %
b10 I
b10 s"
1B
#1100
0B
#1200
b10 i
b10 G"
b10 U"
b11 o
b11 1"
b11 C"
b11 x"
b110 v
b110 '"
b110 ,"
0#"
b10 $"
b10 +"
b10 /"
b10 C
b10 k
b10 ("
b10 0"
b10 E"
b100 h
b100 <"
b100 V"
b111 m
b111 ;"
b111 T"
b110011 w
b110011 ."
b110011 ?"
b111 ~
b111 *"
b111 -"
b111 ="
b11 j
b11 %"
b11 D"
b100 4"
b10 3"
b111 5"
b0 |
b0 8"
b0 B"
b0 O"
b0 7"
b11100 r
b11100 J"
b11100 K"
b11100 u
b11100 I"
b11100 N"
b11100011111001000110011 E
b11100011111001000110011 {
b11100011111001000110011 6"
b11100011111001000110011 9"
b11100011111001000110011 A"
b11000 s
b11000 H"
b11000 R"
b11 $
b11 H
b11 t"
b11000 D
b11000 t
b11000 @"
b11000 L"
b11000 M"
b11000 Q"
1B
#1300
0B
#1400
b11 i
b11 G"
b11 U"
b11 C
b11 k
b11 ("
b11 0"
b11 E"
b101 v
b101 '"
b101 ,"
b1000 h
b1000 <"
b1000 V"
b110 ~
b110 *"
b110 -"
b110 ="
b1000 4"
b100 3"
b100000 r
b100000 J"
b100000 K"
b11100011110010000110011 E
b11100011110010000110011 {
b11100011110010000110011 6"
b11100011110010000110011 9"
b11100011110010000110011 A"
b100000 u
b100000 I"
b100000 N"
b11100 s
b11100 H"
b11100 R"
b11100 D
b11100 t
b11100 @"
b11100 L"
b11100 M"
b11100 Q"
b10 '
b10 K
b10 q"
1B
#1500
0B
#1600
xf
bx q
bx 2"
bx F"
bx i
bx G"
bx U"
bx C
bx k
bx ("
bx 0"
bx E"
bx j
bx %"
bx D"
bx o
bx 1"
bx C"
bx x"
bx p
bx &"
bx w"
bx h
bx <"
bx V"
bx m
bx ;"
bx T"
bx n
bx :"
bx S"
bx w
bx ."
bx ?"
bx }
bx )"
bx >"
bx ~
bx *"
bx -"
bx ="
bx 4"
bx 3"
bx 5"
xP"
b100100 r
b100100 J"
b100100 K"
b100100 u
b100100 I"
b100100 N"
bx E
bx {
bx 6"
bx 9"
bx A"
b100000 s
b100000 H"
b100000 R"
b11 #
b11 G
b11 u"
b100000 D
b100000 t
b100000 @"
b100000 L"
b100000 M"
b100000 Q"
1B
#1700
0B
#1800
b101000 r
b101000 J"
b101000 K"
b101000 u
b101000 I"
b101000 N"
b100100 s
b100100 H"
b100100 R"
b100100 D
b100100 t
b100100 @"
b100100 L"
b100100 M"
b100100 Q"
1B
#1900
0B
#2000
b101100 r
b101100 J"
b101100 K"
b101100 u
b101100 I"
b101100 N"
b101000 s
b101000 H"
b101000 R"
b101000 D
b101000 t
b101000 @"
b101000 L"
b101000 M"
b101000 Q"
1B
#2100
0B
#2200
b110000 r
b110000 J"
b110000 K"
b110000 u
b110000 I"
b110000 N"
b101100 s
b101100 H"
b101100 R"
b101100 D
b101100 t
b101100 @"
b101100 L"
b101100 M"
b101100 Q"
1B
#2300
0B
#2400
b110100 r
b110100 J"
b110100 K"
b110100 u
b110100 I"
b110100 N"
b110000 s
b110000 H"
b110000 R"
b110000 D
b110000 t
b110000 @"
b110000 L"
b110000 M"
b110000 Q"
1B
#2500
0B
#2600
b111000 r
b111000 J"
b111000 K"
b111000 u
b111000 I"
b111000 N"
b110100 s
b110100 H"
b110100 R"
b110100 D
b110100 t
b110100 @"
b110100 L"
b110100 M"
b110100 Q"
1B
#2700
0B
#2800
b111100 r
b111100 J"
b111100 K"
b111100 u
b111100 I"
b111100 N"
b111000 s
b111000 H"
b111000 R"
b111000 D
b111000 t
b111000 @"
b111000 L"
b111000 M"
b111000 Q"
1B
#2900
0B
#3000
b1000000 r
b1000000 J"
b1000000 K"
b1000000 u
b1000000 I"
b1000000 N"
b111100 s
b111100 H"
b111100 R"
b111100 D
b111100 t
b111100 @"
b111100 L"
b111100 M"
b111100 Q"
1B
#3100
0B
#3200
b1000100 r
b1000100 J"
b1000100 K"
b1000100 u
b1000100 I"
b1000100 N"
b1000000 s
b1000000 H"
b1000000 R"
b1000000 D
b1000000 t
b1000000 @"
b1000000 L"
b1000000 M"
b1000000 Q"
1B
#3300
0B
#3400
b1001000 r
b1001000 J"
b1001000 K"
b1001000 u
b1001000 I"
b1001000 N"
b1000100 s
b1000100 H"
b1000100 R"
b1000100 D
b1000100 t
b1000100 @"
b1000100 L"
b1000100 M"
b1000100 Q"
1B
#3500
0B
#3600
b1001100 r
b1001100 J"
b1001100 K"
b1001100 u
b1001100 I"
b1001100 N"
b1001000 s
b1001000 H"
b1001000 R"
b1001000 D
b1001000 t
b1001000 @"
b1001000 L"
b1001000 M"
b1001000 Q"
1B
#3700
0B
#3800
b1010000 r
b1010000 J"
b1010000 K"
b1010000 u
b1010000 I"
b1010000 N"
b1001100 s
b1001100 H"
b1001100 R"
b1001100 D
b1001100 t
b1001100 @"
b1001100 L"
b1001100 M"
b1001100 Q"
1B
#3900
0B
#4000
b1010100 r
b1010100 J"
b1010100 K"
b1010100 u
b1010100 I"
b1010100 N"
b1010000 s
b1010000 H"
b1010000 R"
b1010000 D
b1010000 t
b1010000 @"
b1010000 L"
b1010000 M"
b1010000 Q"
1B
#4100
0B
#4200
b1011000 r
b1011000 J"
b1011000 K"
b1011000 u
b1011000 I"
b1011000 N"
b1010100 s
b1010100 H"
b1010100 R"
b1010100 D
b1010100 t
b1010100 @"
b1010100 L"
b1010100 M"
b1010100 Q"
1B
#4300
0B
#4400
b1011100 r
b1011100 J"
b1011100 K"
b1011100 u
b1011100 I"
b1011100 N"
b1011000 s
b1011000 H"
b1011000 R"
b1011000 D
b1011000 t
b1011000 @"
b1011000 L"
b1011000 M"
b1011000 Q"
1B
#4500
0B
#4600
b1100000 r
b1100000 J"
b1100000 K"
b1100000 u
b1100000 I"
b1100000 N"
b1011100 s
b1011100 H"
b1011100 R"
b1011100 D
b1011100 t
b1011100 @"
b1011100 L"
b1011100 M"
b1011100 Q"
1B
#4700
0B
#4800
b1100100 r
b1100100 J"
b1100100 K"
b1100100 u
b1100100 I"
b1100100 N"
b1100000 s
b1100000 H"
b1100000 R"
b1100000 D
b1100000 t
b1100000 @"
b1100000 L"
b1100000 M"
b1100000 Q"
1B
#4900
0B
#5000
b1101000 r
b1101000 J"
b1101000 K"
b1101000 u
b1101000 I"
b1101000 N"
b1100100 s
b1100100 H"
b1100100 R"
b1100100 D
b1100100 t
b1100100 @"
b1100100 L"
b1100100 M"
b1100100 Q"
1B
#5100
0B
#5200
b1101100 r
b1101100 J"
b1101100 K"
b1101100 u
b1101100 I"
b1101100 N"
b1101000 s
b1101000 H"
b1101000 R"
b1101000 D
b1101000 t
b1101000 @"
b1101000 L"
b1101000 M"
b1101000 Q"
1B
#5300
0B
#5400
b1110000 r
b1110000 J"
b1110000 K"
b1110000 u
b1110000 I"
b1110000 N"
b1101100 s
b1101100 H"
b1101100 R"
b1101100 D
b1101100 t
b1101100 @"
b1101100 L"
b1101100 M"
b1101100 Q"
1B
#5500
0B
#5600
b1110100 r
b1110100 J"
b1110100 K"
b1110100 u
b1110100 I"
b1110100 N"
b1110000 s
b1110000 H"
b1110000 R"
b1110000 D
b1110000 t
b1110000 @"
b1110000 L"
b1110000 M"
b1110000 Q"
1B
#5700
0B
#5800
b1111000 r
b1111000 J"
b1111000 K"
b1111000 u
b1111000 I"
b1111000 N"
b1110100 s
b1110100 H"
b1110100 R"
b1110100 D
b1110100 t
b1110100 @"
b1110100 L"
b1110100 M"
b1110100 Q"
1B
#5900
0B
#6000
b1111100 r
b1111100 J"
b1111100 K"
b1111100 u
b1111100 I"
b1111100 N"
b1111000 s
b1111000 H"
b1111000 R"
b1111000 D
b1111000 t
b1111000 @"
b1111000 L"
b1111000 M"
b1111000 Q"
1B
#6100
0B
#6200
b10000000 r
b10000000 J"
b10000000 K"
b10000000 u
b10000000 I"
b10000000 N"
b1111100 s
b1111100 H"
b1111100 R"
b1111100 D
b1111100 t
b1111100 @"
b1111100 L"
b1111100 M"
b1111100 Q"
1B
#6300
0B
#6400
b10000100 r
b10000100 J"
b10000100 K"
b10000100 u
b10000100 I"
b10000100 N"
b10000000 s
b10000000 H"
b10000000 R"
b10000000 D
b10000000 t
b10000000 @"
b10000000 L"
b10000000 M"
b10000000 Q"
1B
#6500
0B
#6600
b10001000 r
b10001000 J"
b10001000 K"
b10001000 u
b10001000 I"
b10001000 N"
b10000100 s
b10000100 H"
b10000100 R"
b10000100 D
b10000100 t
b10000100 @"
b10000100 L"
b10000100 M"
b10000100 Q"
1B
#6700
0B
#6800
b10001100 r
b10001100 J"
b10001100 K"
b10001100 u
b10001100 I"
b10001100 N"
b10001000 s
b10001000 H"
b10001000 R"
b10001000 D
b10001000 t
b10001000 @"
b10001000 L"
b10001000 M"
b10001000 Q"
1B
#6900
0B
#7000
b10010000 r
b10010000 J"
b10010000 K"
b10010000 u
b10010000 I"
b10010000 N"
b10001100 s
b10001100 H"
b10001100 R"
b10001100 D
b10001100 t
b10001100 @"
b10001100 L"
b10001100 M"
b10001100 Q"
1B
#7100
0B
#7200
b10010100 r
b10010100 J"
b10010100 K"
b10010100 u
b10010100 I"
b10010100 N"
b10010000 s
b10010000 H"
b10010000 R"
b10010000 D
b10010000 t
b10010000 @"
b10010000 L"
b10010000 M"
b10010000 Q"
1B
#7300
0B
#7400
b10011000 r
b10011000 J"
b10011000 K"
b10011000 u
b10011000 I"
b10011000 N"
b10010100 s
b10010100 H"
b10010100 R"
b10010100 D
b10010100 t
b10010100 @"
b10010100 L"
b10010100 M"
b10010100 Q"
1B
#7500
0B
#7600
b10011100 r
b10011100 J"
b10011100 K"
b10011100 u
b10011100 I"
b10011100 N"
b10011000 s
b10011000 H"
b10011000 R"
b10011000 D
b10011000 t
b10011000 @"
b10011000 L"
b10011000 M"
b10011000 Q"
1B
#7700
0B
#7800
b10100000 r
b10100000 J"
b10100000 K"
b10100000 u
b10100000 I"
b10100000 N"
b10011100 s
b10011100 H"
b10011100 R"
b10011100 D
b10011100 t
b10011100 @"
b10011100 L"
b10011100 M"
b10011100 Q"
1B
#7900
0B
#8000
b10100100 r
b10100100 J"
b10100100 K"
b10100100 u
b10100100 I"
b10100100 N"
b10100000 s
b10100000 H"
b10100000 R"
b10100000 D
b10100000 t
b10100000 @"
b10100000 L"
b10100000 M"
b10100000 Q"
1B
#8100
0B
#8200
b10101000 r
b10101000 J"
b10101000 K"
b10101000 u
b10101000 I"
b10101000 N"
b10100100 s
b10100100 H"
b10100100 R"
b10100100 D
b10100100 t
b10100100 @"
b10100100 L"
b10100100 M"
b10100100 Q"
1B
#8300
0B
#8400
b10101100 r
b10101100 J"
b10101100 K"
b10101100 u
b10101100 I"
b10101100 N"
b10101000 s
b10101000 H"
b10101000 R"
b10101000 D
b10101000 t
b10101000 @"
b10101000 L"
b10101000 M"
b10101000 Q"
1B
#8500
0B
#8600
b10110000 r
b10110000 J"
b10110000 K"
b10110000 u
b10110000 I"
b10110000 N"
b10101100 s
b10101100 H"
b10101100 R"
b10101100 D
b10101100 t
b10101100 @"
b10101100 L"
b10101100 M"
b10101100 Q"
1B
#8700
0B
#8800
b10110100 r
b10110100 J"
b10110100 K"
b10110100 u
b10110100 I"
b10110100 N"
b10110000 s
b10110000 H"
b10110000 R"
b10110000 D
b10110000 t
b10110000 @"
b10110000 L"
b10110000 M"
b10110000 Q"
1B
#8900
0B
#9000
b10111000 r
b10111000 J"
b10111000 K"
b10111000 u
b10111000 I"
b10111000 N"
b10110100 s
b10110100 H"
b10110100 R"
b10110100 D
b10110100 t
b10110100 @"
b10110100 L"
b10110100 M"
b10110100 Q"
1B
#9100
0B
#9200
b10111100 r
b10111100 J"
b10111100 K"
b10111100 u
b10111100 I"
b10111100 N"
b10111000 s
b10111000 H"
b10111000 R"
b10111000 D
b10111000 t
b10111000 @"
b10111000 L"
b10111000 M"
b10111000 Q"
1B
#9300
0B
#9400
b11000000 r
b11000000 J"
b11000000 K"
b11000000 u
b11000000 I"
b11000000 N"
b10111100 s
b10111100 H"
b10111100 R"
b10111100 D
b10111100 t
b10111100 @"
b10111100 L"
b10111100 M"
b10111100 Q"
1B
#9500
0B
#9600
b11000100 r
b11000100 J"
b11000100 K"
b11000100 u
b11000100 I"
b11000100 N"
b11000000 s
b11000000 H"
b11000000 R"
b11000000 D
b11000000 t
b11000000 @"
b11000000 L"
b11000000 M"
b11000000 Q"
1B
#9700
0B
#9800
b11001000 r
b11001000 J"
b11001000 K"
b11001000 u
b11001000 I"
b11001000 N"
b11000100 s
b11000100 H"
b11000100 R"
b11000100 D
b11000100 t
b11000100 @"
b11000100 L"
b11000100 M"
b11000100 Q"
1B
#9900
0B
#10000
b11001100 r
b11001100 J"
b11001100 K"
b11001100 u
b11001100 I"
b11001100 N"
b11001000 s
b11001000 H"
b11001000 R"
b11001000 D
b11001000 t
b11001000 @"
b11001000 L"
b11001000 M"
b11001000 Q"
1B
#10100
0B
#10200
b11010000 r
b11010000 J"
b11010000 K"
b11010000 u
b11010000 I"
b11010000 N"
b11001100 s
b11001100 H"
b11001100 R"
b11001100 D
b11001100 t
b11001100 @"
b11001100 L"
b11001100 M"
b11001100 Q"
1B
#10300
0B
#10400
b11010100 r
b11010100 J"
b11010100 K"
b11010100 u
b11010100 I"
b11010100 N"
b11010000 s
b11010000 H"
b11010000 R"
b11010000 D
b11010000 t
b11010000 @"
b11010000 L"
b11010000 M"
b11010000 Q"
1B
#10500
0B
#10600
b11011000 r
b11011000 J"
b11011000 K"
b11011000 u
b11011000 I"
b11011000 N"
b11010100 s
b11010100 H"
b11010100 R"
b11010100 D
b11010100 t
b11010100 @"
b11010100 L"
b11010100 M"
b11010100 Q"
1B
#10700
0B
#10800
b11011100 r
b11011100 J"
b11011100 K"
b11011100 u
b11011100 I"
b11011100 N"
b11011000 s
b11011000 H"
b11011000 R"
b11011000 D
b11011000 t
b11011000 @"
b11011000 L"
b11011000 M"
b11011000 Q"
1B
#10900
0B
#11000
b11100000 r
b11100000 J"
b11100000 K"
b11100000 u
b11100000 I"
b11100000 N"
b11011100 s
b11011100 H"
b11011100 R"
b11011100 D
b11011100 t
b11011100 @"
b11011100 L"
b11011100 M"
b11011100 Q"
1B
#11100
0B
